\relax 
\providecommand\babel@aux[2]{}
\@nameuse{bbl@beforestart}
\babel@aux{english}{}
\@writefile{toc}{\contentsline {section}{\numberline {1}Metadata}{1}{}\protected@file@percent }
\@writefile{toc}{\contentsline {section}{\numberline {2}Peer review reports (target: 1 page)}{1}{}\protected@file@percent }
\@writefile{toc}{\contentsline {subsection}{\numberline {2.1}The weak points}{1}{}\protected@file@percent }
\@writefile{toc}{\contentsline {subsection}{\numberline {2.2}The solutions}{1}{}\protected@file@percent }
\@writefile{toc}{\contentsline {subsection}{\numberline {2.3}The best suggestion}{1}{}\protected@file@percent }
\@writefile{toc}{\contentsline {section}{\numberline {3}Changes since the group phase (target: $0.5$ pages)}{2}{}\protected@file@percent }
\@writefile{toc}{\contentsline {section}{\numberline {4}Final design of the evolutionary algorithm (target: $3.5$ pages)}{2}{}\protected@file@percent }
\@writefile{toc}{\contentsline {subsection}{\numberline {4.1}The three main features}{2}{}\protected@file@percent }
\@writefile{toc}{\contentsline {subsection}{\numberline {4.2}The main loop}{3}{}\protected@file@percent }
\@writefile{lof}{\contentsline {figure}{\numberline {1}{\ignorespaces Flow of the genetic algorithm}}{3}{}\protected@file@percent }
\newlabel{fig:chart}{{1}{3}}
\newlabel{fig:chart@cref}{{[figure][1][]1}{[1][2][]3}}
\@writefile{toc}{\contentsline {subsection}{\numberline {4.3}Representation}{3}{}\protected@file@percent }
\newlabel{representation}{{4.3}{3}}
\newlabel{representation@cref}{{[subsection][3][4]4.3}{[1][3][]3}}
\@writefile{toc}{\contentsline {subsection}{\numberline {4.4}Initialization}{4}{}\protected@file@percent }
\newlabel{initialisation}{{4.4}{4}}
\newlabel{initialisation@cref}{{[subsection][4][4]4.4}{[1][3][]4}}
\@writefile{toc}{\contentsline {subsection}{\numberline {4.5}Selection operators}{4}{}\protected@file@percent }
\newlabel{selection}{{4.5}{4}}
\newlabel{selection@cref}{{[subsection][5][4]4.5}{[1][4][]4}}
\@writefile{toc}{\contentsline {subsection}{\numberline {4.6}Mutation operators}{4}{}\protected@file@percent }
\newlabel{mutation}{{4.6}{4}}
\newlabel{mutation@cref}{{[subsection][6][4]4.6}{[1][4][]4}}
\@writefile{toc}{\contentsline {subsection}{\numberline {4.7}Recombination operators}{4}{}\protected@file@percent }
\newlabel{recombination}{{4.7}{4}}
\newlabel{recombination@cref}{{[subsection][7][4]4.7}{[1][4][]4}}
\@writefile{toc}{\contentsline {subsection}{\numberline {4.8}Elimination operators}{4}{}\protected@file@percent }
\newlabel{elimination}{{4.8}{4}}
\newlabel{elimination@cref}{{[subsection][8][4]4.8}{[1][4][]4}}
\@writefile{toc}{\contentsline {subsection}{\numberline {4.9}Local search operators}{4}{}\protected@file@percent }
\newlabel{local}{{4.9}{4}}
\newlabel{local@cref}{{[subsection][9][4]4.9}{[1][4][]4}}
\@writefile{toc}{\contentsline {subsection}{\numberline {4.10}Diversity promotion mechanisms}{5}{}\protected@file@percent }
\newlabel{diversity}{{4.10}{5}}
\newlabel{diversity@cref}{{[subsection][10][4]4.10}{[1][5][]5}}
\@writefile{toc}{\contentsline {subsection}{\numberline {4.11}Stopping criterion}{5}{}\protected@file@percent }
\newlabel{stop}{{4.11}{5}}
\newlabel{stop@cref}{{[subsection][11][4]4.11}{[1][5][]5}}
\@writefile{toc}{\contentsline {subsection}{\numberline {4.12}Parameter selection}{5}{}\protected@file@percent }
\newlabel{parameter}{{4.12}{5}}
\newlabel{parameter@cref}{{[subsection][12][4]4.12}{[1][5][]5}}
\@writefile{toc}{\contentsline {subsection}{\numberline {4.13}Other considerations}{5}{}\protected@file@percent }
\@writefile{toc}{\contentsline {section}{\numberline {5}Numerical experiments (target: 1.5 pages)}{5}{}\protected@file@percent }
\@writefile{toc}{\contentsline {subsection}{\numberline {5.1}Metadata}{5}{}\protected@file@percent }
\@writefile{toc}{\contentsline {subsection}{\numberline {5.2}tour29.csv}{6}{}\protected@file@percent }
\@writefile{lof}{\contentsline {figure}{\numberline {2}{\ignorespaces Convergence graph for the tour29.csv dataset for 20 runs.}}{6}{}\protected@file@percent }
\newlabel{fig:tour29}{{2}{6}}
\newlabel{fig:tour29@cref}{{[figure][2][]2}{[1][6][]6}}
\@writefile{lof}{\contentsline {figure}{\numberline {3}{\ignorespaces Histogram of the best objective values for 1000 runs}}{7}{}\protected@file@percent }
\newlabel{fig:besthist}{{3}{7}}
\newlabel{fig:besthist@cref}{{[figure][3][]3}{[1][6][]7}}
\@writefile{lof}{\contentsline {figure}{\numberline {4}{\ignorespaces Histogram of the mean objective values for 1000 runs}}{8}{}\protected@file@percent }
\newlabel{fig:meanhist}{{4}{8}}
\newlabel{fig:meanhist@cref}{{[figure][4][]4}{[1][7][]8}}
\@writefile{toc}{\contentsline {subsection}{\numberline {5.3}tour100.csv}{8}{}\protected@file@percent }
\@writefile{lof}{\contentsline {figure}{\numberline {5}{\ignorespaces Convergence graph for the tour100.csv dataset for 20 runs.}}{9}{}\protected@file@percent }
\newlabel{fig:tour100}{{5}{9}}
\newlabel{fig:tour100@cref}{{[figure][5][]5}{[1][8][]9}}
\@writefile{toc}{\contentsline {subsection}{\numberline {5.4}tour250.csv}{9}{}\protected@file@percent }
\@writefile{lof}{\contentsline {figure}{\numberline {6}{\ignorespaces Convergence graph for the tour250.csv dataset for 20 runs.}}{10}{}\protected@file@percent }
\newlabel{fig:tour250}{{6}{10}}
\newlabel{fig:tour250@cref}{{[figure][6][]6}{[1][9][]10}}
\@writefile{toc}{\contentsline {subsection}{\numberline {5.5}tour500.csv}{10}{}\protected@file@percent }
\@writefile{lof}{\contentsline {figure}{\numberline {7}{\ignorespaces Convergence graph for the tour500.csv dataset.}}{11}{}\protected@file@percent }
\newlabel{fig:tour500}{{7}{11}}
\newlabel{fig:tour500@cref}{{[figure][7][]7}{[1][10][]11}}
\@writefile{toc}{\contentsline {subsection}{\numberline {5.6}tour1000.csv}{11}{}\protected@file@percent }
\@writefile{lof}{\contentsline {figure}{\numberline {8}{\ignorespaces Convergence graph for the tour1000.csv dataset for 20 runs.}}{12}{}\protected@file@percent }
\newlabel{fig:tour1000}{{8}{12}}
\newlabel{fig:tour1000@cref}{{[figure][8][]8}{[1][11][]12}}
\@writefile{toc}{\contentsline {section}{\numberline {6}Critical reflection (target: 0.75 pages)}{12}{}\protected@file@percent }
\gdef \@abspage@last{13}
